"death"
1.27769542452762
1.65021046502284
1.20374959747072
1.34753112867688
1.16902987327003
1.39868422578994
1.45110876597366
1.41896006601664
1.36751320085873
1.20442264499022
1.1862312278116
1.19253269396882
1.1766666288418
1.50115702473823
1.15191503127887
0.948203489253329
1.34226528527812
1.3194576899314
1.15952106388283
1.20235711555503
1.38680751729891
1.38210495963616
1.55754624118464
1.28678195041721
1.23439708860055
1.47534456801671
1.70689241016114
1.59450794054524
1.365922601518
1.39523808709536
1.45477568018739
1.4786280982677
1.49621439216421
1.38726790086333
1.34422501621324
1.46320450762449
1.22078864739152
1.46562003613455
1.09408094913846
1.28061445521675
1.29301646356356
1.31866566559903
1.18309365552037
1.35581998312063
1.53252557294791
1.37866153240018
1.25658613478642
1.49081822443953
1.45857547347066
1.60988757926434
1.79988010583575
1.15205582087984
1.21991741907516
1.41173233372928
1.37046606917309
1.42340656476379
1.20460221576137
1.44355962181383
1.51242989809048
1.24098605399937
1.25213555047746
1.14978367600314
1.41581935317477
1.7709065085327
1.21608966124701
1.34325546171266
1.54451289997407
1.41751698913024
1.27598155884891
1.57097550526505
1.43427812307709
1.52827899528559
1.41240300358182
1.44527562841732
1.27165521594759
1.25971069578525
1.27186209176868
1.53165947663487
1.46040827725338
1.49563585911503
1.45880766813554
1.36233439838981
1.04659514705376
1.38178648013527
1.30236840843591
1.65127672409895
1.00666740864452
1.02443909313773
1.20693635376218
1.12878098915639
1.32450998951114
1.50749682541006
1.56667876415245
1.17547859880926
1.4556896524421
1.34837513397581
1.74278000888956
1.10561430787916
1.42176231444421
1.395879774187
