"birth"
0.898489458591468
0.91515525289108
0.857097809821444
0.944943652605646
1.10719291544262
0.997065135705671
0.988615647621709
0.899855128203578
0.989992798693063
1.21128310791152
1.18498993805865
0.981471890255144
0.944912367999512
1.0235894896137
0.980324301560159
1.0238625538446
1.06296428174803
1.06583084971345
1.09968952745795
1.03215905397614
1.05926797034396
0.918463736690755
1.05570471916707
0.990169120697381
1.02666026358624
1.02523513551454
1.0029836812949
0.695017566243745
1.02690393503858
0.917866549140565
1.11405348411107
0.949020502558961
1.01296248583615
1.14755605432686
0.99743637624712
0.861114504494777
0.980998116663012
0.940207189933028
1.05858517053496
0.93152515068926
1.04274349743925
1.05571746194709
1.16590620662061
1.01406079428675
0.823466443628646
0.878629140280897
0.984993473478375
0.873691953108435
1.32029767946583
1.0083000716344
1.03251175790625
1.03371989577822
1.10631436985249
0.932235702271884
1.36924867771435
1.14572138774689
0.935500658162441
1.04052540538418
1.00934124522077
0.987120317628087
1.20174809975224
1.03358093993526
1.01253309866502
1.05444994044212
1.19524300445384
1.14744601080369
1.04525800061423
1.02340974792351
0.927324321387111
0.989565642295354
0.962883668339494
1.0117897052455
0.864051888038772
1.14264602974176
1.12910988204511
0.765013516349643
1.03652439164295
0.910502971561202
1.059122325484
1.17091975764377
1.06706615250697
1.05107017434842
0.926843126825217
0.924192471983284
1.050637232826
0.983688104197945
0.850850678471715
1.06867559241263
1.00271936140497
1.12051946763363
1.03271816606874
1.12023514979114
1.09516982049154
1.06295222387016
1.0415492640304
1.12445798563405
1.05221583386709
1.12528248624232
0.926786657566153
0.993383978836419
