"birth"
0.893927024193356
0.920860268355957
0.849590224884335
0.936372193058609
1.04578001227748
1.00633797147104
0.996745372203079
0.911958731920793
0.989914047978576
1.19657799075174
1.21281995278387
1.0000026016499
0.964762154696741
1.02582590430038
1.0126538681859
1.02860472688157
1.06296428174803
1.06482425143635
1.07605996870077
1.03668291094526
1.01337454210398
0.922549198044485
1.06661387249331
0.976889852198583
1.01498790374191
1.01205907223534
0.988242655434287
0.704044604737583
1.02690393503858
0.927464325000293
1.12367252939337
0.956189854075654
1.01332039436891
1.13471225524875
1.01095598044696
0.928938778783359
0.941560539527502
0.934430758837153
1.07195652819005
0.924389044024533
1.08215501237016
1.07151024558328
1.17518304379512
1.01031985103535
0.8384111360347
0.852774417490483
0.982564338952158
0.855128306140183
1.2984785529839
1.01244620057225
1.04730818359338
1.02335565300894
1.07252893719899
0.941019410712222
1.37618567392731
1.14909521151856
0.948282631266744
1.04234371379528
1.01217177028335
0.979260484119535
1.16521535958896
1.04778331512342
1.03725247292301
1.04919917850793
1.17227653963428
1.13781079900742
1.0507304414106
1.01686391474017
0.956396918178617
0.998581489095051
0.966800046293488
0.981553579419027
0.872835736570278
1.1553261564127
1.10129266725011
0.768682569219883
1.03794083478471
0.927767698468306
1.08351334326348
1.1787266393459
1.04681266254265
1.03245985583115
0.95545416275436
0.928910634990331
1.03180731024791
0.971134084104936
0.857674738274359
1.0848544755254
1.03189170690017
1.09143639599753
0.994915405796031
1.12811172387585
1.0850669643761
1.08371166463334
1.05708305147889
1.06793955969955
1.05221583386709
1.1442683033089
0.938199000117759
1.01920077423001
