"birth"
1.67686070942003
1.63813253702623
1.4448582487704
2.09100780326852
NA
2.09742956243549
1.91213653304824
NA
3.19748488166613
2.67471131477845
2.09751810929698
NA
1.86464715720664
1.79394078159308
1.70259968084997
1.99800432083799
1.1802890230637
2.18108912617767
2.69251591302443
2.15763894379309
2.07591580784042
1.29532226352845
NA
2.04904901324478
1.97910101438673
2.76187644715437
2.07086787115007
1.70865016083766
1.45288588743776
1.67189580632712
NA
2.10187226934232
2.32040758573599
2.11889475288226
1.80570952146717
1.88230598592662
2.05592051166907
1.97951033506944
1.79902953161336
1.96440786725659
2.13468221970915
2.66457288272686
NA
2.14892899036514
NA
1.79722321514515
1.85909333769506
1.71025661228037
2.59757663096648
1.78190469805115
1.91004492315478
1.77218444015228
2.24438903318469
NA
NA
1.8089441349077
2.20887900882812
2.16289495849515
NA
1.5758024760948
NA
NA
2.03328159477164
1.86878977014404
2.10056250752402
2.19765601515959
1.63022893923178
2.95752969615051
1.54441999570533
NA
1.98137534620151
2.24163214882556
NA
3.04051009983175
2.54099274506844
NA
2.30463427847836
1.82082294807341
1.88384487471566
2.1437105059827
2.32834813129044
1.74361240250937
1.68518216900345
1.89872687828062
1.82141098420053
1.76072290658135
2.29646600872921
2.31075646691127
2.08539526562339
2.20450555950475
2.17279196491001
1.82295529598171
2.04635349020451
2.19246785060936
NA
2.83982514117136
NA
2.37853315447142
1.72952020802703
2.21984849422305
