"birth"
2.06961651667168
1.88991125912749
2.29376780240366
1.93295293324266
1.88944171593261
1.57167386285032
1.73181175335226
2.04953667586263
2.03599181498046
1.75049947698159
1.69949002026235
2.19327305073269
1.9365120167473
1.93173259750413
2.05714624935474
1.81552917134511
2.11559982178576
2.09989690168867
2.18012461011961
2.05419762502289
2.05300272483603
2.24222883072135
1.67877487697433
2.06883200578263
2.31574036344961
2.51743209396987
1.76740840765876
1.83273490613149
2.672175469564
1.69784464424191
2.31662360948225
2.07901920232311
1.97908062374172
1.96109361141557
1.84367035638076
1.65438127918414
1.96799648061243
2.10263990214101
1.95038693187648
1.99827058490509
2.2292898037391
2.10897853356912
1.9776205062037
1.96073251707668
1.48209957370205
2.07011277303819
1.67483811070817
2.23583992361541
1.82601034492982
2.28054116575719
1.99477501175588
1.94426567216255
2.35329828899655
1.85055976588921
2.03015193399464
2.26176730061114
1.8858842237589
2.48868315065454
2.01078662245324
2.05883805223322
2.4814735546622
2.02206395592482
2.15397265977447
1.87166023976117
2.2289782208342
2.03710650789916
1.74824407168676
1.76685661897959
1.50903282480905
1.90310627201521
1.9995967079149
2.55697587951806
1.98608137144575
2.15316953545122
2.07872591817871
2.35476499758509
2.06762720359823
1.9783571755582
2.03481374944658
2.47615683362489
2.49166147826117
2.01788239216721
1.89820541454379
1.86929020345118
1.81575118653245
2.53230199657873
2.17413868147873
2.34000803212794
1.83039750528048
2.29608288438896
2.72434290445702
2.23726766144108
2.30255102263424
1.69583023693701
1.35908608770012
1.91915672950578
1.79180231915063
2.28611873587249
2.0901234605873
2.41809564943
