"x"
"1" 8.95339107384124
"2" 10.3400326867497
"3" 6.7327131131914
"4" 11.7557571409146
"5" 10.0987921401322
"6" 7.11422252114944
"7" 6.66959726779513
"8" 7.05908710862849
"9" 7.93330960087283
"10" 10.9640432239818
"11" 10.2177850022529
"12" 12.3685187154865
"13" 9.05913999635031
"14" 10.8951927038675
"15" 12.6073640029373
"16" 13.438295078774
"17" 11.8851104321343
"18" 12.7550924273508
"19" 5.19980419055152
"20" 9.7872968507543
"21" 9.07424129844124
"22" 8.07682539376295
"23" 12.6976068041092
"24" 6.35601609329913
"25" 9.71241787957342
"26" 8.32877848654401
"27" 7.64757859138166
"28" 7.710530319341
"29" 7.96716103270565
"30" 7.24918850039999
"31" 10.5928426071428
"32" 11.6013990008104
"33" 8.20648820819104
"34" 10.8375846500651
"35" 8.63602030420753
"36" 10.4187642554629
"37" 7.59273225019909
"38" 5.96464471151786
"39" 11.6197813048062
"40" 6.0789271061617
"41" 12.0163097453137
"42" 12.7556360150537
"43" 9.6160009170729
"44" 9.42126986578149
"45" 8.83745612029491
"46" 8.54096968109492
"47" 7.03110729309369
"48" 5.581907905659
"49" 7.04090144130611
"50" 6.30210255515395
"51" 9.67025277027095
"52" 7.84981952923029
"53" 10.6409415671813
"54" 9.36421043132358
"55" 9.1697101838861
"56" 12.4821811887765
"57" 13.4425840459778
"58" 6.56747235558425
"59" 6.41697531668301
"60" 5.97437378642647
"61" 8.16930055620652
"62" 13.1992927180311
"63" 13.6505266316752
"64" 7.54793679909672
"65" 6.62240234577742
"66" 7.35796714586947
"67" 8.32898531594419
"68" 9.46839203913378
"69" 10.417590925766
"70" 10.6471710589916
"71" 7.38607707156611
"72" 10.4465946920006
"73" 6.03502635220052
"74" 9.69058432030948
"75" 10.5020398725927
"76" 10.6812413962236
"77" 7.4889176277312
"78" 6.30708694660024
"79" 12.5106428156931
"80" 8.32456864657485
"81" 7.18806715214327
"82" 10.8427469254106
"83" 10.2333717890554
"84" 8.76760412223689
"85" 6.40963890858808
"86" 8.48462052966319
"87" 11.2897063790131
"88" 11.7309316733143
"89" 6.16475769421148
"90" 10.7726181555591
"91" 6.4722799192238
"92" 11.4367367916305
"93" 5.88760658259867
"94" 7.44763435223703
"95" 8.72774820590369
"96" 7.55670718862427
"97" 7.30839072229224
"98" 7.81911065723895
"99" 10.1117344811659
"100" 8.11197481748126
