"sampling"
0.467391304347826
0.461538461538462
0.384615384615385
0.479166666666667
0.415384615384615
0.445652173913043
0.337078651685393
0.458333333333333
0.546875
0.532258064516129
0.418181818181818
0.439393939393939
0.493333333333333
0.446808510638298
0.425531914893617
0.533333333333333
0.466666666666667
0.606060606060606
0.467889908256881
0.5
0.52112676056338
0.283333333333333
0.472222222222222
0.4921875
0.493506493506494
0.462686567164179
0.5
0.621951219512195
0.527472527472527
0.449438202247191
0.383561643835616
0.619047619047619
0.576086956521739
0.457627118644068
0.539325842696629
0.40625
0.548387096774194
0.551724137931034
0.368421052631579
0.559139784946237
0.470588235294118
0.5
0.434782608695652
0.614035087719298
0.406593406593407
0.4125
0.435294117647059
0.516666666666667
0.509615384615385
0.526315789473684
0.410714285714286
0.48
0.528301886792453
0.421052631578947
0.492063492063492
0.424242424242424
0.6
0.556603773584906
0.458333333333333
0.5546875
0.378787878787879
0.425925925925926
0.5
0.472972972972973
0.434210526315789
0.554054054054054
0.432098765432099
0.271186440677966
0.475409836065574
0.5
0.313432835820896
0.487179487179487
0.566265060240964
0.424242424242424
0.363636363636364
0.433962264150943
0.552631578947368
0.511363636363636
0.509090909090909
0.45679012345679
0.44047619047619
0.383561643835616
0.476923076923077
0.444444444444444
0.505263157894737
0.376811594202899
0.462962962962963
0.476190476190476
0.408695652173913
0.534883720930233
0.397590361445783
0.563636363636364
0.384615384615385
0.3625
0.422222222222222
0.391304347826087
0.395061728395062
0.40506329113924
0.416666666666667
0.527777777777778
