"death"
0.373165712066951
0.449827636137221
0.236565800306705
0.381609160731674
0.294967065543384
0.411840381116766
0.399967647508694
0.430209944958908
0.308308040079997
0.330927460072833
0.270717544174262
0.453878481686787
0.422078292262951
0.339592558442427
0.369826127680947
0.401948288870482
0.338459980439001
0.360204616075374
0.441722850645349
0.303600410200683
0.40506430041629
0.432521988494916
0.374922921297799
0.37504559264319
0.451001424394099
0.390483276833976
0.276735708849028
0.447652754594365
0.319397583244548
0.347264946956559
0.482582071130996
0.419953272434595
0.392866571673505
0.481402320123837
0.551773768049567
0.401806244229317
0.312510667042796
0.413828581204595
0.377216003707386
0.240245460972526
0.35917566229749
0.331122636121022
0.375920735657638
0.26769510628473
0.545261453994331
0.351012192961125
0.38844865195662
0.339402198100179
0.430532969660416
0.337336997571179
0.542782752034975
0.324889045309912
0.239579800792519
0.464300567608742
0.542672486035424
0.323172944827364
0.274892707222816
0.433994930591858
0.307949103252254
0.332906292522698
0.32176239186632
0.338362354118805
0.193523757426844
0.415159979082521
0.299408569258406
0.273374836068253
0.319457649753267
0.422793424993105
0.366748782600939
0.345649230829929
0.415075492564782
0.405891838972778
0.337358764467648
0.312182336288627
0.314144369150109
0.403541670178995
0.444578916047693
0.354152141584385
0.395344819561907
0.539003682352346
0.360280296980114
0.426150949564128
0.30886348471784
0.449485694142372
0.357544638950968
0.366885562910135
0.192984026691804
0.281754947529373
0.318274932506827
0.365139900903872
0.276218695926246
0.431790477540438
0.253745651576002
0.363019131532213
0.436115926841149
0.359232912668001
0.402798862595913
0.274233486461151
0.409983917369724
0.320331712344115
