"birth"
1.14303417007243
1.33698130311325
1.13363925287488
0.772323242652841
0.681179033634124
1.08573974635281
0.623070576647872
1.30073891485332
1.35399320608186
0.879254291524627
0.956265019607367
0.712118793925136
0.792702420843281
1.09854489916991
0.933076621701193
1.02688471194066
0.72683679595009
1.25202718098867
1.40093264452009
1.24279927088936
1.22963882665432
0.639912840164612
0.899006476411815
0.647891597253384
1.13068240428006
0.953518015707441
1.30309906546161
1.29727086787641
1.18413106237503
0.605188579671765
0.569458708385418
1.18486697531615
0.869911675993567
0.754309955644808
1.1535545219462
0.85007067167318
0.909616699826273
1.29148946133472
1.11602270328548
0.740562714982259
0.938816591084197
1.05514480364819
0.904582123432261
1.20435631369834
0.835825654088811
0.676284185553545
1.19685406750779
0.759489695310222
0.993863027106316
1.42737000779911
1.1420730366029
0.923147123007366
0.860794178114377
0.739785024921871
1.15913225964019
0.948947620247017
1.05944605522773
1.21034360629303
1.09425456726243
0.891585952405383
0.7473612730213
0.682206330715853
0.94916806918804
0.818566904308131
1.07646131923228
1.26682239975296
0.792711104856909
0.471932602705105
0.979236093544685
0.585218295284391
0.75718333424313
1.14117758268889
1.31619986166701
0.699887247197613
1.01124829629723
1.15708877144902
1.35119406887437
1.12170341397897
0.833756044318706
1.19854915542493
0.763598362928823
0.595708395766731
0.588251542878776
1.2456421027095
0.965100181092436
0.694169740827899
0.876583023101518
0.95999233037424
0.713908480040478
1.41541170176091
0.961690426054235
1.03971652305325
0.933200087859569
0.824856660147366
1.44542901527272
0.646483240043181
0.430885775481357
0.768053118974392
0.543550534479383
1.09932121877143
