"death"
1.11478954124721
1.03978779840849
1.11455108359133
1.03832108759734
1.09643857543017
1.15451388888889
1.29519697787372
1.3162672476398
1.10772357723577
0.919907249021173
1.03092783505155
0.989928057553957
1.07446276861569
1.01209135691894
0.903195924038907
0.798311264632508
0.904761904761905
0.921559061093945
1.19866814650388
1.0496021669206
1.0989010989011
1.1174384871602
0.843978102189781
1.22182901843919
0.975200206664945
1.18178658324644
1.26034303249493
1.31054131054131
1.0662177328844
1.14496013085259
1.03679906542056
1.05726001679759
1.11846704223036
1.03260653719369
1.18049083566325
1.05990783410138
1.17274030317509
1.32429113045336
0.996277069896702
1.13994664079554
0.915791824882734
0.952752154519077
0.968558535422093
0.993855196366551
1.13016623956896
1.041305102395
1.1882504466326
1.27334465195246
1.25010417534795
1.34268060836502
1.18319701421425
1.0635907422665
0.973118797572021
1.04139351938565
1.09795381334785
0.945378151260504
0.921495658337764
1.27931769722815
1.28282593539391
1.15987031371295
1.06656132727632
0.88892181191896
0.899249170595425
1.29385964912281
1.27270623626056
1.06036745406824
1.1689874505759
1.0693215339233
1.01165777514325
1.02192331207966
1.30943847072879
1.05442176870748
1.26481242708909
1.03021978021978
0.939347315572111
0.945795580988714
1.22215651488271
1.32097791798107
0.933274544385655
1.12255112255112
1.22780314561136
1.03295956506966
0.826684610208594
1.2058098109071
1.17616172223681
1.2384193609378
0.914966842944682
0.965458056211114
1.10682110682111
0.898897229172458
1.1403230915426
0.913644560208375
1.38248847926267
1.22341696535245
1.20113047574187
1.12296943980112
1.3784869206556
1.05276350419852
1.05131414267835
1.0840108401084
