"birth"
2.22563416837622
2.369915447611
1.96045328532771
1.92840748376057
2.17912022440302
2.14084837473839
1.89968910502765
2.27141639778252
2.37889717677903
1.93898996903793
2.08278990731039
1.59492735097307
2.00305615769766
1.99747688848747
1.7750955293105
1.75110207052913
1.71933596397525
2.40829216400474
1.79119110321338
1.88448491681892
2.1055633922172
2.19268106040023
2.05029123275964
1.74015545678535
1.59947770594321
2.0343222098954
2.69114787451111
2.54679941797509
2.15810104341796
1.9233866519923
1.80643087020491
2.34100383385215
1.81631759608766
1.88468499942379
2.00190427079862
2.25047609233119
1.99774827931914
2.04108069949506
1.9401366373316
2.0094932964087
1.68867974798675
1.86662450283091
1.65734587308756
2.56682163464574
1.8577046588415
1.85193352743064
1.97552251042002
1.90034134186928
2.1813313253029
2.67558377438891
2.31908697275705
2.1051886162508
1.79113071209942
2.02402350979921
1.99303662740097
2.62368734027594
1.82539804635946
2.06909606137297
2.04484248651043
1.60926215429286
1.80955843722596
1.80363456810538
2.51391457302624
2.24846138988439
1.86664054991398
1.92145641266149
1.78389677907378
1.68943795045068
2.0925948355583
2.14695833503322
2.20019926293998
2.54285917472827
2.27261370675392
1.6138482655589
1.97193132776816
2.11771051209329
2.43510675630019
2.21860718398852
2.09802514282908
2.32312893415466
2.0983740680613
1.58206148734657
1.3459168554562
2.46879165992834
2.25066475342179
1.99798213496327
1.94973914815007
1.92050587243946
2.26417378924049
1.94907274219676
2.46980908536055
1.95304998572569
2.38217795260303
2.08268943027008
2.91121328514106
1.63274976473344
2.05983797850513
1.66596420442703
1.95456783207484
2.27028983521235
