FBD.t.asym.rho0 FBD.t.asym.rho1 uncorrected.t.asym boundary.crosser.t.asym three.timer.t.asym
0.360544217687075 1 0.360544217687075 0.054421768707483 0.0476190476190476
0.477272727272727 1 0.477272727272727 0.0568181818181818 0.0568181818181818
0.46927374301676 1 0.46927374301676 0.0391061452513966 0.0335195530726257
0.389261744966443 1 0.389261744966443 0.12751677852349 0.12751677852349
0.333333333333333 1 0.333333333333333 0.0579710144927536 0.0579710144927536
0.470588235294118 1 0.470588235294118 0.0941176470588235 0.0941176470588235
0.508474576271186 1 0.508474576271186 0.11864406779661 0.101694915254237
0.465116279069767 1 0.465116279069767 0.0465116279069767 0.0465116279069767
0.481081081081081 1 0.481081081081081 0.0540540540540541 0.0540540540540541
0.423841059602649 1 0.423841059602649 0.0927152317880795 0.0927152317880795
0.485714285714286 1 0.485714285714286 0.08 0.0685714285714286
0.354166666666667 1 0.354166666666667 0.0625 0.0625
0.36986301369863 1 0.36986301369863 0.0684931506849315 0.0616438356164384
0.43859649122807 1 0.43859649122807 0.0292397660818713 0.0292397660818713
0.44578313253012 1 0.44578313253012 0.0602409638554217 0.0602409638554217
0.344827586206897 1 0.344827586206897 0.0413793103448276 0.0413793103448276
0.402597402597403 1 0.402597402597403 0.0584415584415584 0.0584415584415584
0.512953367875648 1 0.512953367875648 0.0362694300518135 0.0310880829015544
0.456140350877193 1 0.456140350877193 0.0584795321637427 0.0526315789473684
0.391304347826087 1 0.391304347826087 0.144927536231884 0.101449275362319
0.371621621621622 1 0.371621621621622 0.0743243243243243 0.0675675675675676
0.346938775510204 1 0.346938775510204 0.0340136054421769 0.0340136054421769
0.279411764705882 1 0.279411764705882 0.0367647058823529 0.0367647058823529
0.381944444444444 1 0.381944444444444 0.111111111111111 0.104166666666667
0.53030303030303 1 0.53030303030303 0.0454545454545455 0.0454545454545455
0.477777777777778 1 0.477777777777778 0.05 0.0444444444444444
0.379310344827586 1 0.379310344827586 0.0896551724137931 0.0827586206896552
0.28030303030303 1 0.28030303030303 0.0606060606060606 0.053030303030303
0.306569343065693 1 0.306569343065693 0.0583941605839416 0.0583941605839416
0.302158273381295 1 0.302158273381295 0.0287769784172662 0.0287769784172662
0.335570469798658 1 0.335570469798658 0.00671140939597315 0.00671140939597315
0.451807228915663 1 0.451807228915663 0.0602409638554217 0.0542168674698795
0.445714285714286 1 0.445714285714286 0.04 0.0342857142857143
0.45859872611465 1 0.45859872611465 0.146496815286624 0.10828025477707
0.494623655913978 1 0.494623655913978 0.043010752688172 0.0376344086021505
0.513368983957219 1 0.513368983957219 0.0748663101604278 0.0748663101604278
0.409090909090909 1 0.409090909090909 0.0714285714285714 0.0714285714285714
0.449438202247191 1 0.449438202247191 0.0168539325842697 0.0168539325842697
0.510526315789474 1 0.510526315789474 0.0526315789473684 0.0473684210526316
0.491329479768786 1 0.491329479768786 0.104046242774566 0.092485549132948
0.427631578947368 1 0.427631578947368 0.131578947368421 0.111842105263158
0.364238410596026 1 0.364238410596026 0.0529801324503311 0.0463576158940397
0.326530612244898 1 0.326530612244898 0.0136054421768707 0.0136054421768707
0.449664429530201 1 0.449664429530201 0.134228187919463 0.12751677852349
0.26865671641791 1 0.26865671641791 0.0149253731343284 0.0149253731343284
0.34965034965035 1 0.34965034965035 0.0559440559440559 0.0559440559440559
0.4375 1 0.4375 0.09375 0.09375
0.403726708074534 1 0.403726708074534 0.0496894409937888 0.0434782608695652
0.286764705882353 1 0.286764705882353 0.0220588235294118 0.0220588235294118
0.426751592356688 1 0.426751592356688 0.089171974522293 0.0828025477707006
0.421052631578947 1 0.421052631578947 0.0986842105263158 0.0855263157894737
0.447368421052632 1 0.447368421052632 0.111842105263158 0.0921052631578947
0.432258064516129 1 0.432258064516129 0.103225806451613 0.0967741935483871
0.346938775510204 1 0.346938775510204 0.0272108843537415 0.0272108843537415
0.2734375 1 0.2734375 0.0546875 0.0546875
0.494117647058824 1 0.494117647058824 0.1 0.0941176470588235
0.319148936170213 1 0.319148936170213 0.0283687943262411 0.0283687943262411
0.442424242424242 1 0.442424242424242 0.0606060606060606 0.0606060606060606
0.451428571428571 1 0.451428571428571 0.0342857142857143 0.0342857142857143
0.515625 1 0.515625 0.0572916666666667 0.0572916666666667
0.255813953488372 1 0.255813953488372 0.0310077519379845 0.0310077519379845
0.408536585365854 1 0.408536585365854 0.0182926829268293 0.0182926829268293
0.452380952380952 1 0.452380952380952 0.0595238095238095 0.0535714285714286
0.457831325301205 1 0.457831325301205 0.0783132530120482 0.0783132530120482
0.427672955974843 1 0.427672955974843 0.0566037735849057 0.050314465408805
0.472826086956522 1 0.472826086956522 0.0271739130434783 0.0271739130434783
0.265151515151515 1 0.265151515151515 0.0303030303030303 0.0303030303030303
0.408805031446541 1 0.408805031446541 0.050314465408805 0.050314465408805
0.371794871794872 1 0.371794871794872 0.0256410256410256 0.0256410256410256
0.272058823529412 1 0.272058823529412 0.00735294117647059 0.00735294117647059
0.49438202247191 1 0.49438202247191 0.117977528089888 0.0786516853932584
0.56020942408377 1 0.56020942408377 0.130890052356021 0.120418848167539
0.454022988505747 1 0.454022988505747 0.0344827586206897 0.0344827586206897
0.384105960264901 1 0.384105960264901 0.0529801324503311 0.0529801324503311
0.456140350877193 1 0.456140350877193 0.064327485380117 0.0584795321637427
0.355263157894737 1 0.355263157894737 0.0131578947368421 0.0131578947368421
0.45679012345679 1 0.45679012345679 0.104938271604938 0.0987654320987654
0.474285714285714 1 0.474285714285714 0.0571428571428571 0.0514285714285714
0.394736842105263 1 0.394736842105263 0.0723684210526316 0.0526315789473684
0.363636363636364 1 0.363636363636364 0.104895104895105 0.0909090909090909
0.351724137931034 1 0.351724137931034 0.0827586206896552 0.0689655172413793
0.559405940594059 1 0.559405940594059 0.0693069306930693 0.0594059405940594
0.429447852760736 1 0.429447852760736 0.049079754601227 0.0429447852760736
0.340425531914894 1 0.340425531914894 0.0638297872340425 0.0567375886524823
0.419753086419753 1 0.419753086419753 0.0617283950617284 0.0555555555555556
0.432926829268293 1 0.432926829268293 0.0548780487804878 0.0426829268292683
0.36 1 0.36 0.04 0.04
0.490566037735849 1 0.490566037735849 0.157232704402516 0.144654088050314
0.462857142857143 1 0.462857142857143 0.0628571428571429 0.0457142857142857
0.431372549019608 1 0.431372549019608 0.117647058823529 0.104575163398693
0.364963503649635 1 0.364963503649635 0.116788321167883 0.0948905109489051
0.335616438356164 1 0.335616438356164 0.0342465753424658 0.0342465753424658
0.373333333333333 1 0.373333333333333 0.0533333333333333 0.0533333333333333
0.374193548387097 1 0.374193548387097 0.0193548387096774 0.0129032258064516
0.5 1 0.5 0.0372340425531915 0.0372340425531915
0.383116883116883 1 0.383116883116883 0.051948051948052 0.051948051948052
0.276923076923077 1 0.276923076923077 0.0538461538461538 0.0538461538461538
0.361111111111111 1 0.361111111111111 0.0694444444444444 0.0694444444444444
0.479768786127168 1 0.479768786127168 0.0867052023121387 0.069364161849711
0.384105960264901 1 0.384105960264901 0.0662251655629139 0.0596026490066225
