"birth"
1.05084900748467
1.24420218999381
1.06216623823804
0.953459047997611
1.0770429501839
1.12213672643495
1.21868839860415
1.25428212890556
1.17845972928673
1.15114292252356
1.13232288416625
1.10903548889591
1.15199844039472
1.12669096123286
1.06510246022609
1.18602582100857
1.01207306154113
1.04115979652168
1.21985155600803
1.18252648505907
1.11883565233295
1.51378458176047
1.20298624495591
1.18234738602327
1.023575483634
1.08910677866399
1.22256222383285
1.22573282293077
1.03116867305673
1.41504482548402
1.07618623608744
1.26541043339661
1.13864695144319
1.17523568270555
1.07637884339378
1.02569188858961
1.03418304864747
1.289409295129
1.22547225054368
1.19405901379361
1.00086857725537
1.23244941840293
1.05792942742377
1.24936383228812
1.18580391198295
1.18006984829035
1.12410967970635
1.28808505345866
1.35157078687988
1.47450055329074
1.18003513037953
1.06977099105687
1.00747009482745
1.12243178981911
1.2761221027804
1.23540474428611
0.99229602453771
1.27653422567906
1.03529918960373
1.15260226660441
1.23934519112577
0.972958509522472
1.09495291490783
1.37811520712989
1.21484258924996
1.13357619350643
1.28447828458659
1.31243391445503
0.926460187483254
1.20997690566103
1.30028622310396
1.13739529013401
1.33940506752477
1.22606910291618
1.13677889111663
1.26973427561257
1.17335433275274
1.36308439645771
1.15964061282391
1.17658542505908
1.24585248524643
1.10740370985368
1.33115064305772
1.27589146255962
1.26076236892359
1.1715891654432
0.99367627179088
1.25752092327013
1.1138443621375
1.10102157338336
1.17504706366292
1.21252866305315
1.49650073349301
1.42580490556846
1.33392038023781
1.15776365518469
1.23738673952833
1.11439386534659
1.12094294017111
1.27991007709701
