"death"
1.06591520925544
1.53559172349571
0.955357704121287
1.13314146331836
0.968663736175705
0.739452891040713
0.896648261726075
0.622690740915153
0.65232471745087
0.85611716891199
1.10045292369764
1.28699650507227
0.674249844138782
0.757988734421431
1.02675450089203
0.588884353272574
1.18474459609891
1.32324004749632
0.980971790328023
0.634405862926328
0.800368094270582
1.23152658936293
1.13213027623957
1.05905933143115
1.05243227227993
1.16559101266359
1.52406955065292
1.22440621986724
0.944121958798803
1.26121018721643
1.22505953752729
1.45831082094466
1.29407582143827
1.21032016242441
1.23907241547744
1.18379274600669
1.12569839904721
1.10599115718343
1.47471194143598
0.830112632459642
1.19361110319537
1.20392060387441
0.914194521588574
1.05426376402629
1.20384329681319
1.17536175882942
1.26204147190693
1.30919952065944
1.46982796778383
1.55342322173153
1.53830980076812
0.262632328506565
1.06095221610499
0.906113803064035
1.2333854150141
0.341446634312612
0.716736224263809
1.52485260825669
1.16676055780786
1.00450559168503
1.15002120512508
0.342222779521918
1.42149167103149
1.4446773413957
1.28688817528807
1.27179752557416
1.29027669246672
1.27200122823057
1.13014637195759
1.3402854232028
1.51390132844811
1.20982842458971
1.1432661580555
1.28473772383619
1.42872837215937
0.263115765951431
1.11886889259868
1.30138177106036
0.257407547326181
1.15251281595568
1.31282927124584
1.29998669767818
1.01359014439634
1.40545844158426
0.954322856319507
1.36419519221644
0.562231395218898
1.17482572976262
0.192991098977618
1.0612324146193
1.12972468222458
0.782152924845483
1.34250467412189
1.43304706973523
1.40936828532967
1.22731752204169
1.09585164353558
0.193185298894492
1.18234526189343
1.28412619636681
