"birth"
1.61724528842588
2.57479254274097
1.50878074064536
1.80385627005684
1.5492930324456
1.34863282161584
1.57434329302987
1.19661921136793
1.22687416798325
1.30379529377415
1.98184611106485
1.97044919742335
1.26594090047751
1.40097062577339
1.7964153921547
1.24006127440002
1.79761922964111
2.08037612178148
1.86821610112397
1.46780439894907
1.33021632236319
2.15711103254562
2.00882943021907
1.4993696195563
1.75742635061036
1.89672911456682
2.26798058465857
2.15672099614224
1.78642874824825
2.25431507909172
2.03026124984963
2.35220147171402
2.05241496563032
1.89783107883067
1.85689784666425
1.83245095935687
1.86741575198914
1.9206185647195
2.33216316991644
1.5769248937007
1.96308110129589
2.05372123722277
1.531190181079
1.98101756729374
1.94660658632872
2.04120571415794
2.01310812896031
2.19504922648651
2.41199010403407
2.56556422521822
2.40541835988091
0.475202911082094
1.79084299426948
1.33610731342808
1.94506725640248
0.814005756235974
1.20503156846151
2.39237180863009
1.77995160689171
1.66244229811831
2.16544698915153
0.69629317282653
2.275032834843
2.3421652764567
2.24778378651828
2.33252489220085
2.02631002382322
2.22863396805679
1.79049001617423
2.30683697320436
2.37759498475676
2.06557648319267
2.22889721209994
2.28813594021765
2.31552767262303
0.698289083047182
1.9580717657558
2.22756233174578
0.535678995433701
1.87864036253149
2.32457023434355
1.92533307831918
1.8095119020197
2.37779983665926
1.86821024056771
2.23729477595897
1.07399669829172
2.15103746863881
0.374919179159543
1.83797136050585
1.9411662135427
1.52791374589793
2.53323225601782
2.49423713825293
2.38755932272835
1.9934930316482
1.71888855870269
0.540264941398337
1.94838704997956
2.10298417220458
