"death"
1.0814191848668
1.53366768439267
1.14960679025592
1.20109812736287
1.0187812056384
1.30037837519706
1.18010815293719
1.38103759610462
1.21753743768068
1.23669818662084
1.17447489983353
1.30567250701296
1.11511091973544
1.29362967132389
1.06157320565236
0.998665163835927
1.55339848140382
1.34848173060351
0.907560423308266
1.00064936814147
1.45592805728662
1.19664125963042
1.22518587307136
1.13926607050826
1.12840375357407
1.25355176311998
1.66715295109713
1.29511525399232
1.08272830169473
1.27207015926328
1.36119345863779
1.41757154681115
1.44836747376812
1.40168119531771
1.3298489017007
1.18968477928124
1.17926839876664
1.15619661877558
1.47653452579608
1.24848840780428
1.17093331023262
1.27438767814405
1.00691292353388
1.32554478913183
1.42076051117518
1.25348023426206
1.16390747662556
1.25149103136397
1.3676276500893
1.5231661973164
1.67326303305937
1.03193249783912
1.1185779981651
1.38106870233787
1.30351785714046
1.28241697643234
1.29699072200578
1.40828390714662
1.26122986208009
1.08977787334324
1.22028995252548
1.32464481928307
1.4700752826817
1.58191653115709
1.21759774018345
1.23970274287724
1.45667033596665
1.25575649810766
1.25343973475938
1.57363073237438
1.37619994573903
1.37889302709847
1.42875559869998
1.33326790206683
1.40678048289149
1.33728651376518
1.12391466347718
1.50944794516887
1.38963291643476
1.35693938127618
1.35473009798483
1.48794535085565
1.13290924913305
1.42583922129986
1.13768315540334
1.41452962040339
1.00002543009881
1.15669812109017
1.0313050022017
1.20605697025103
1.12742154905552
1.43979091222626
1.23032487979096
1.35118236394955
1.33192964773541
1.34703315378713
1.36596096296392
1.06292112800067
1.2274664269065
1.32667020091041
