"birth"
0.426716515254851
0.492179565648463
0.250464142177373
0.681453963206999
0.608146918242822
0.449003754323378
0.621497334315315
0.84218405274374
0.73559868249485
1.0280087539957
0.191145772452918
0.631446707206318
0.560498063700217
0.141748257217658
0.901605027986347
0
0.270864882496292
0.628628074586301
0.712430457734235
0.319644454979584
0.854440408933929
0.572779490432685
0.348661798928453
0.742037097898117
0.852520817755059
0.734050856320278
0.702052804519251
0.504385369861678
0
0.536286512674234
0.590379344707434
1.18486697531615
0.636509819377318
0.569091611566678
0.684676882565055
0.141158042197565
0.179202263602471
0.386173887397979
1.24091795450075
0.53888414407473
0.421309503518661
0.628628074586301
0.476519012295643
0.422464622025582
0.458641250210147
0.424003620451057
0.59076205910442
0.928745804305552
0.376144767956402
0.455349409941856
0.827479812465642
0.76229137413651
0.178149868793131
0.55234581993156
0.204968128611451
0.456638210240922
0.393634319604453
0.373621322250764
0.517954814828353
0.429600860348866
0.271031285365519
0.647793858785646
0.438088220105701
0.528080777531977
0.308012645478301
0.321674634102973
0.746803711559623
0.71446823151423
0.284822350420883
0.40572804717351
0.497562548214432
0.950459364036167
0.221118953427975
1.12935762894854
0.310005757153352
0.911993490921841
0.63463699162339
0.884769549737251
0.81083432343808
0.48760574439527
0.304727767425272
0.461127391341112
0
0.249945247438707
0.920747368778021
0.632403989496841
0.343411538817711
0.948501335483767
0.87122808159289
0.282845284086713
0.543457359563081
0.945418167980838
0.676469479988968
0.306851546092766
0.267688717400872
0.252373372606877
0.831039729048543
0.575670486571293
0.766404526837278
0.414387894622921
