"birth"
1.17696315682717
2.00279591313108
1.40271785908914
1.34202974154247
2.57291448816896
1.08900579937784
1.66268767367665
0.738064349258349
2.37270138674287
3.22839544005055
1.16084854515654
2.57510065989456
0.946343633169229
2.83299021463009
1.09157036308653
1.41557251115176
1.83102048111352
0.867621376644066
1.08559272623314
0.913101260086985
0.524265340906278
1.04254637762668
2.35012093246293
2.23707302226347
1.77040932184637
1.39949205929076
1.48193469731848
1.94278385050645
1.35813910350438
2.57060174956967
1.51575741348847
2.86149817704559
0.795763100892956
1.19373865347
2.14151311265504
2.0925948355583
0
3.27386501675779
1.98829198257381
2.01340099700966
1.31984743176491
1.4206057858514
0.993480591531419
1.58688800500291
1.05618793088929
1.12908794367837
1.10434390922824
2.03445086053664
1.85008320109597
1.65821328456928
2.72449197292314
1.56718786938284
0.288132111826651
1.1579922882511
1.49063909797838
1.10023361993642
0.942205580325921
1.10559339790118
1.24758494802512
1.88643981935594
1.4773601756299
1.95380899869212
2.00912226249259
1.68908917413788
0.544243453116282
0.18398099063187
1.33241854270339
2.14504045246075
0.71370180845983
2.66750720680401
1.69597004458666
1.43575581405025
2.27261370675392
2.74231580959407
0.886799300463652
1.62123840250722
1.34427795727892
1.45426015527885
1.45442973313358
2.20421303768738
1.11086330988538
1.27182968910082
0
1.82231509262096
1.64333072593926
1.8858842237589
1.07562188225686
1.66242246273174
1.18950301409972
1.02681795951454
1.42425342195677
1.82577760782379
1.89328012535313
1.52145295591363
1.19566612703813
1.47528321456088
1.71888855870269
1.07052367296211
NA
1.43362601195639
