"x"
"1" 5.14212559183688
"2" 3.8724279201962
"3" 5.17190497067962
"4" 5.01483145238356
"5" 6.81818272728369
"6" 4.84941673578479
"7" 4.32137865376757
"8" 4.24364920592856
"9" 6.06339587122416
"10" 7.76632604518336
"11" 4.22161103720664
"12" 4.98670888528131
"13" 6.50936124545503
"14" 5.38918829213288
"15" 5.97799888305143
"16" 3.62790203029375
"17" 6.27099763339909
"18" 5.4760697550344
"19" 6.66765593036767
"20" 4.06830489388708
"21" 6.79875257243284
"22" 5.08664852862927
"23" 5.02749285011024
"24" 5.39843950684075
"25" 4.47868175759118
"26" 5.1490900466683
"27" 4.81993544587131
"28" 5.58066526704584
"29" 4.65341858559189
"30" 9.10507319833475
"31" 5.99253930141407
"32" 5.00332838156545
"33" 4.52740939695863
"34" 4.28676126469337
"35" 5.92830764894853
"36" 6.28413823519653
"37" 5.76671449274178
"38" 5.66302073336439
"39" 5.84507560951241
"40" 5.01449202638353
"41" 5.77130128045073
"42" 6.6538846282103
"43" 5.09098357126094
"44" 4.03132925682526
"45" 8.86200160768334
"46" 4.24813184488066
"47" 6.00078994398817
"48" 8.54705316728928
"49" 5.22604813675852
"50" 4.50415531620078
"51" 6.58844281336455
"52" 4.96681635890637
"53" 3.9573724306075
"54" 6.13955030828873
"55" 5.73781345407673
"56" 7.26198742334304
"57" 4.16102766149585
"58" 8.14919169040915
"59" 7.4681302136316
"60" 7.03301840613619
"61" 4.55641379015442
"62" 5.42831496697248
"63" 5.40790444765025
"64" 3.81530934104402
"65" 4.00135643198282
"66" 6.10561490323582
"67" 5.16894337407473
"68" 5.88402174419737
"69" 6.37773652622773
"70" 6.14298768086203
"71" 6.11869784912646
"72" 5.57963529422573
"73" 6.52751232877106
"74" 5.3483661199373
"75" 5.40753405877175
"76" 4.35016128782638
"77" 5.1202430000983
"78" 4.37608799956214
"79" 4.3617852921103
"80" 4.87171831745161
"81" 5.1071515603364
"82" 6.73517180689359
"83" 7.49927194203853
"84" 7.0756685557851
"85" 6.22153874583942
"86" 7.13590035485481
"87" 5.78697535387151
"88" 5.50434901821167
"89" 5.12997598232288
"90" 4.23300238544912
"91" 3.95850803221704
"92" 4.02266746728595
"93" 4.32978729508848
"94" 7.87946211677655
"95" 7.64900743521418
"96" 3.98844150852147
"97" 4.10322967625665
"98" 3.78076310565868
"99" 5.74474841685571
"100" 5.38957579507193
