"death"
0.0674081563869228
0.0266028198989093
0.0267094017094017
0.0551876379690949
0.134408602150538
0.135089496791624
0.167056465085199
0.0594530321046373
0.0293599530240752
0.117508813160987
0.0331180659049512
0.056980056980057
0.0482625482625483
0.0792079207920792
0.0959232613908873
0.087719298245614
0.159235668789809
0.327600327600328
0.124018189334436
0.120758362516604
0.208073241781107
0.104166666666667
0.0522125048949223
0.0931966449207828
0.109379272627837
0.153846153846154
0.1001627644923
0.0779727095516569
0.0896057347670251
0.0282326369282891
0.0720590884525311
0.153186274509804
0.120772946859903
0.0268961807423346
0.216450216450216
0.139508928571429
0.139308103087996
0.0626959247648903
0.0664672648720505
0.108932461873638
0.0313873195229127
0.148544266191325
0.111482720178372
0.0310703743980115
0.099502487562189
0
0.0575208513085994
0.0845665961945032
0.157232704402516
0.0297796307325789
0.195742598482995
0.0246639536317672
0
0.1162452775356
0.134348410210479
0.12012012012012
0.127779197546639
0
0.087719298245614
0
0.0859660434128519
0.0586510263929619
0.138089758342923
0.0954084675014907
0.0969148764335326
0.125031257814454
0.0743563528208941
0.168776371308017
0.0484554815263477
0.0290613193839
0.0266595574513463
0.0892060660124889
0.159489633173844
0.0910746812386157
0.149439601494396
0.138888888888889
0.0894454382826476
0.125786163522013
0.101010101010101
0.0707964601769911
0.0396510705789056
0.135226504394861
0.0302480338777979
0.149342891278375
0.22002200220022
0.115740740740741
0.150659133709981
0.031328320802005
0.13262599469496
0.138840680319334
0.107604017216643
0.0577283879347669
0.0933997509339975
0.141509433962264
0.141163184641446
0.210563256711704
0
0.0299895036737142
0.0741564701520208
0.061633281972265
