"death"
0
0
1.5594811850314
0.362547404123457
0
0
0
0
0.405232752530101
0
0
0
0
0
0
0
0
0.433228090019659
0
0
0
0
0
0
0
0
0
1.1806043390218
0.929764797142541
0
0.597775596045753
2.71822423748998
0
0
0
0
0
0
0
0.655114057502613
0
0
0
0
0
0.547828072820388
0
0
0
0
0
1.24883816124916
0
1.15056433528623
0
0.603090679227594
0
0
0
0
0
0
0.560547926644576
0
0
0.588134054174047
0
0
0
0
0
0
0
0
0
0
0
0
0
0
1.5594811850314
0
0
0
0.423909182934992
1.12629196696712
0
0
0
0
0.424445741412828
0
0
0
0
0
0.414339890426808
0
0.406148398815115
0
