"birth"
2.05503605711181
3.86157245817299
NA
2.8881132523331
NA
2.41949222872031
NA
NA
NA
NA
NA
NA
4.46853282802415
1.84839248149319
NA
0.400213538367682
1.68943795045069
0.91213952482796
1.20906760657197
NA
2.2449474206308
4.3309432804342
NA
2.19170328707116
0
NA
0.302481518994783
NA
NA
NA
NA
3.180118494966
3.3136524002039
NA
NA
0
NA
2.39016269158602
NA
NA
1.49773814331878
1.64592878804536
3.67504401933629
NA
NA
NA
2.27261370675392
NA
NA
4.3982648333847
NA
2.00323774025879
NA
3.54391060860681
NA
NA
4.26181735755421
NA
NA
NA
1.92334095209812
NA
NA
4.55027279487642
NA
NA
NA
3.26943084337242
0.686595542505261
NA
4.85186257024605
NA
NA
3.13814022365631
NA
NA
NA
NA
NA
2.77258872223978
NA
NA
NA
NA
1.86598941238768
NA
NA
0.93701523024104
NA
NA
1.79377941524545
NA
NA
NA
NA
2.49183231105361
0
3.55460092594844
0.769460521773138
NA
