"birth"
0.990843162290009
0.825646902414224
0.835040191005498
1.01933408905874
1.05111747559579
0.984468494488926
0.954401521472885
1.0398380492685
1.07239534750832
1.03152890433203
1.1897472339155
1.08787242446245
1.03699949824524
0.889426777714499
0.97149739806145
1.09351387819262
NA
1.07247973528242
1.0713102531206
1.00766841822819
0.92702323178449
0.946227467671419
1.25741124536205
1.02473101750067
1.16261004776496
1.07952984190707
0.983242334465937
0.712031833265596
NA
1.02680142234213
1.09412543014067
0.921397951624557
0.99625587966717
1.12783801350091
1.1434386256793
0.939671672988402
0.806395338793782
0.870601232089873
0.969436616167756
0.875442253281844
1.03196187007702
1.09459408678329
1.42714594345571
0.949794655731939
1.02565383414423
0.915620027388051
1.01112322225126
0.812959459931143
1.93795765100835
1.03072184095018
1.0272069257556
1.01790403709163
1.10441532812122
0.821947685826656
NA
0.978831829705026
0.896105654225301
1.20161367613744
0.945799425831061
1.07216861147071
0.948075802064639
0.868468212385857
0.968322955724981
1.06918140057984
1.36336882655487
0.9953882047479
0.848991475318503
1.22091170699072
0.92197906393287
1.24764363524002
0.989516347754717
1.02248759308267
0.787521804225378
1.3390160450672
0.970645951046378
0.961701674410475
0.925221864515509
0.912999066323135
1.25499539036658
1.21301132363734
1.06484306492472
0.975061040337984
0.944085365049188
0.960187086188292
0.979963098418304
0.95434222613503
0.693316861764088
1.16728588775513
1.04846155600175
1.09829251116
0.913456007569081
1.12909030293228
1.16039384141857
1.15732069922318
1.11371288525601
1.0918083695665
1.01485717245789
1.10142567072663
1.01981433759641
1.0045611312463
