"death"
0.427278571781811
0.567753896066277
0.416219555815693
0.647310206133736
0.474557741999602
0.5877300058773
0.618556701030928
0.348826628110371
0.549125974490602
0.49857076381041
0.752121073148361
0.450138504155125
0.589371980676328
0.513031927076176
0.515527950310559
0.430875576036866
0.351728320194057
0.456013426319062
0.475279106858054
0.699446706336778
0.583534598738917
0.338394000365831
0.385346812130918
0.561434450323339
0.510073338295769
0.566620879120879
0.630604000394127
0.492527173913044
0.296495956873315
0.342141988925404
0.35757737618327
0.609959893048128
0.524321597103371
0.706577595066804
0.491256953941341
0.6250762574263
0.398092093193909
0.421337827603494
0.52816381930306
0.576422246657793
0.631087440265568
0.535616868625085
0.342136854741897
0.635266640716232
0.394682176983797
0.485307525071884
0.638151783189951
0.470969013558513
0.490393866972904
0.702367983487185
0.647219125479995
0.591897132360445
0.702923714573765
0.38961038961039
0.367631342709357
0.580870279146141
0.483891835942554
0.433171764443702
0.376986627860343
0.510922476565957
0.414800066368011
0.354679210688468
0.566946778711485
0.476710051178136
0.456881781838949
0.515526627938806
0.458671763019589
0.514963488244481
0.437707708519089
0.367820150659134
0.724703324576501
0.702414143378936
0.343497082627517
0.535005995756849
0.478857656536321
0.300008478500479
0.634719136781974
0.508104170460754
0.667259786476868
0.753167945743352
0.575149213239284
0.59045512215752
0.483991064780342
0.608899297423888
0.530863784037244
0.528786488965629
0.448865307723316
0.720594330899468
0.691888366025253
0.653076284475602
0.614446315597834
0.53341384863124
0.521586675432829
0.54466476109023
0.372018225676762
0.499206768905341
0.325820336002221
0.550365120274914
0.587882902671832
0.531984762905556
