"death"
0.494300220327618
0.715290806754221
0.468686609869109
1.07958477508651
0.557309605817068
0.788914507889145
0.816151202749141
0.382149009162891
0.675232725842402
0.601272767171385
1.06969153457107
0.507417091671629
0.81779360604112
0.622986036519871
0.596491228070175
0.495535714285714
0.384552446408117
0.528996091745292
0.558854880462921
1.34791532640995
0.841802689662252
0.372495194213609
0.435465448315248
0.783475783475783
0.572519083969466
0.697911360163016
0.842362099514915
0.679600371747212
0.3247038174638
0.387925552210964
0.39556171191112
0.83912037037037
0.659003979073733
1.18589743589744
0.556215155895106
0.819680016932357
0.464426014840681
0.476518904006521
0.639604298140883
0.857736857736858
0.951357376005095
0.687572291479244
0.383134385829804
0.918964076858814
0.447932810078488
0.641844878021073
0.855739121045243
0.608129072292895
0.55598272904714
0.959232613908873
0.983899821109123
0.727669637984355
0.985825118124016
0.456950456950457
0.409232280242265
0.733005733005733
0.609407731860598
0.483592400690846
0.421369450714823
0.582629162325886
0.482975126780971
0.377164170795524
0.71304347826087
0.519616130475859
0.503339797457445
0.595363066494706
0.535446562433069
0.612780857893201
0.524843965307611
0.405181761113964
1.22390957631232
1.02130176168867
0.372926017730734
0.621531147433731
0.57181688600126
0.329230517909763
0.905338470005503
0.622286674070471
0.971715328467153
1.0989010989011
0.864661654135338
0.735651553942379
0.583547829766228
0.837080594949844
0.62966808453629
0.682739492212503
0.545058922377577
1.00003322369514
0.967389608363239
0.895964457608293
0.939306358381503
0.636207320068779
0.659340659340659
0.63649542448129
0.413764639116752
0.596318107061383
0.352138373960006
0.68792662116041
0.721703219598252
0.645780051150895
