"death"
1.02564502843923
1.45671501563257
1.00243931370262
1.61560630686487
NA
2.50305025016
1.38764996080613
NA
2.47763995286805
1.5314910194602
1.79224692467067
NA
1.52225735338978
1.0397224848591
1.56758350477565
1.54745725777269
NA
1.59803384567134
NA
1.27068458374092
1.51509841145165
NA
NA
2.03446720123724
1.20863984413373
NA
1.80076328565634
0.80439016967278
NA
0.849742423168259
NA
1.37049666031868
2.40449929005275
1.4983948092554
NA
1.42912203908863
NA
NA
1.30895257125985
1.4241097185221
1.3622018136912
2.46298203454846
NA
2.31788371119118
NA
1.23144980702959
1.5678354930415
1.1840280241557
NA
1.28165038944519
1.52200728975584
1.27703456359418
1.53144040984599
NA
NA
1.08273582010855
1.09114434741295
NA
NA
1.44816672515349
NA
NA
2.05195948596923
1.40931283377008
1.55327099285142
2.0360352051488
0.682367881160317
NA
0.952330125700651
NA
1.48648747436352
2.11766777935575
NA
NA
1.41300615905866
NA
1.45108811601341
1.27738871314763
1.56595371061921
1.45016621567927
1.74550323853003
1.34488564117122
1.62338566927945
1.35626117069382
1.54198068397705
1.20201349799315
NA
2.34478998866391
1.57988291920987
2.17827353572137
1.09186313160792
1.63137086855543
2.50622810617037
1.46956999412003
NA
NA
NA
1.62456370443737
1.61149471512001
1.96235521819001
