"birth"
0.90263107355483
1.20192307692308
0.997229916897507
0.817624347036112
0.784313725490196
1.25730994152047
1.04521147301896
1.23792270531401
0.963855421686747
0.986700986700987
0.782092772384035
0.970212765957447
1.24602332979852
1.15702479338843
0.85898353614889
0.901771336553945
0.815602836879433
0.842601954836535
1.21879760928161
0.793650793650794
1.01606805293006
1.10864745011086
0.907258064516129
1.0126582278481
0.937109537692628
1.00108225108225
1.02040816326531
1.33333333333333
1.12482853223594
1.36986301369863
1.09273903666427
1.07628996517885
0.933968431867003
1.22324159021407
0.922896216125514
0.941176470588235
0.873264666368115
1.36096504794309
1.0636277302944
0.980392156862745
1.06034617183845
0.73329143096585
1.01907808982107
0.990712074303406
1.519227725906
0.983899821109123
0.953754020184097
1.10079119367045
0.95774647887324
1.05140186915888
1.30190007037298
1.00462125778581
0.899965385946694
1.0958904109589
1.38509203572079
0.875752599890531
0.755857898715041
1.04177101071822
1.0479375696767
1.39700641482537
1.05789009697326
0.879557384026103
0.64659977703456
1.03092783505155
1.4726368159204
0.839506172839506
1.03641456582633
1.18634259259259
0.880952380952381
0.872274143302181
1.21810699588477
0.914285714285714
1.32708821233411
0.842945874001775
0.872993522951281
1.34680134680135
1.26452494873548
0.968992248062016
0.782148608235565
1.34680134680135
1.22481869460113
1.20498425304669
1.09750949767835
1.02996254681648
1.31868131868132
0.726744186046512
0.974658869395711
1.07561929595828
1.36752136752137
1.10091743119266
1.08225108225108
0.811594202898551
1.36200716845878
1.05660377358491
1.64141414141414
0.89816725330744
1.2987012987013
1.25093075204765
1.03485838779956
1.11788617886179
