"birth"
0.981223873289948
0.95458401840288
1.01360759047085
0.912104058218598
0.96762502354081
0.839322253486536
0.955743052352483
0.921475256711135
0.916609035897865
0.802126593093784
0.88524251998595
1.06818996511392
0.875716493635018
0.983905882369701
1.06743222990073
0.977123908961908
1.01361486254598
1.13043920790376
1.09365797467463
1.01245190943703
1.11463855323214
1.03616377244438
0.921841388518856
1.03371781049585
1.15863416136105
1.26722769665478
0.889136730957211
0.936867293757279
1.10864518276678
1.01551506252969
1.100987937036
0.962393537607691
0.986305221930097
1.0814571040578
1.00571201085346
0.939209900777082
0.960700795258912
0.920673909803653
0.947061930973172
0.929313844951653
1.17100711315902
1.0767765712576
1.18485090303244
1.031364102205
0.818268744301763
0.832782471855746
0.936908668990809
1.05845748350094
0.929675181588868
1.07525920504954
1.09126501218168
0.952730112197606
1.0825887555561
1.02169008437134
0.982920775219917
1.09585164353558
0.963672666846363
1.0212447191663
0.830162201470675
1.19685406750779
1.09017619302302
0.976245481844202
1.20626048677315
0.971612534904281
1.08339454771593
1.03107636212382
0.781021479504184
0.878316156125924
0.806388066297261
0.931218040946073
0.921868136469983
1.08721378928457
1.03374015068795
0.989345723817572
1.01419049018085
1.10987248983359
1.06156554181261
1.00129679934444
0.971267769902291
1.12153107988068
1.068275016343
1.01165561279521
0.878514347286604
1.02367109143467
0.868154397465795
1.10415816238608
0.969220194774175
0.963568724839319
0.932617109885178
1.19594141455725
1.24951145259697
1.01684310197174
1.09420495165459
0.856964579445163
0.778640980091236
1.07581838836172
0.973815240499667
1.13593505671597
1.08396661908256
1.17957614291712
