"death"
0.916575993168177
0.784548728933598
0.932568554386972
0.944359091105882
1.11320316021006
0.720349314633926
0.939574660621453
0.996740538840528
0.764267407603568
0.773040733092301
0.87620788450658
0.910764091486057
0.874166155069208
1.02843328216529
0.917348548674284
0.804651834063186
1.07895022139991
1.15907263040263
1.0692845981371
0.979148606593602
0.890133155016973
0.979708740674723
0.868770640008169
0.963986334969547
1.14236140915013
1.02813372933595
0.983200351028708
0.808320191002326
1.20490816268068
1.05270866513321
1.16167195018765
1.07386927697932
0.953751428149146
0.904551118148228
0.931414624042665
0.987875024288483
1.10312678113433
1.12214620839527
1.04232101609478
0.900291928017648
0.915546815462378
1.01309118339123
1.00204262840704
0.929009581648155
0.626773899407833
0.928300577756909
0.963905710311625
0.730500766325434
1.01557986624918
1.2078346254438
0.933129623033778
1.06729165769126
1.10126932783113
0.905014382346932
0.98282398286999
0.902089674735264
1.03474383164993
1.08216175836186
1.05157891751517
0.858525368481918
1.19698840150217
0.932471014355187
1.08013337316
0.915847226569725
0.944038087559859
0.865367698692514
0.976315033006925
0.996819437006987
0.792530064555109
0.943780831438622
0.877205533818199
1.32861000230704
1.02301958737422
0.938049232467552
0.932471014355187
1.11067111326115
1.03792759954488
0.974421826215789
0.998969986849829
1.24711849612337
0.961314401803592
0.864917266325153
0.771637507440517
0.918061304540859
1.03191877825361
1.11631788882621
0.871575961292703
0.876356045575327
0.934992945552902
1.05868758934479
1.27792056459304
0.957640532102759
1.18781597382667
0.744280617029295
0.635953022792957
0.977319716027577
0.868197889495022
0.967750537911413
1.05719388652046
1.38312431628032
