"birth"
1.55038759689922
1.47982804232804
1.68654874537227
1.52930402930403
1.38921591711797
1.20160213618158
1.28375733855186
1.42428785607196
1.47865093869414
1.23904064922832
1.37384634835012
1.65882769433065
1.53572513123075
1.3505376344086
1.60872528970688
1.57749077490775
1.65525114155251
1.60593538692712
1.49335776454421
1.60687432867884
1.6522788452613
1.5171650055371
1.5968985092537
1.48602210457881
1.68075684380032
1.82382133995037
1.50706436420722
1.42224493272015
1.76282051282051
1.29904559915164
1.55356462066336
1.5470408346825
1.54738878143133
1.68192463274431
1.45658263305322
1.38081395348837
1.39211136890951
1.4650189356189
1.46357584627732
1.42674956161326
1.63789975638833
1.51287352001503
1.66400956556397
1.63536118119802
1.18985126859143
1.39771785051526
1.45247600441689
1.29695885509839
1.46655231560892
1.69889348384934
1.47250325553441
1.47492625368732
1.74216027874564
1.35739380389652
1.41322781232335
1.38257068950138
1.52524617640897
1.31332082551595
1.27591706539075
1.54233385101483
1.84013801035078
1.44588744588745
1.68168168168168
1.52595372107567
1.69671261930011
1.47810727898113
1.25279981777457
1.33501259445844
1.22918318794607
1.40407002577091
1.44401283566965
1.62651526776124
1.4676681343348
1.51921358355675
1.44410613310135
1.71146953405018
1.56660412757974
1.59429971053218
1.56533892382949
1.7679012345679
1.63778529163145
1.46122143124766
1.19689283449588
1.34628493524199
1.3978358805945
1.4821029082774
1.40709945634794
1.53195488721805
1.46931719965428
1.77868642984922
1.94894005014817
1.72276578811853
1.68092301571514
1.17088607594937
1.11531120176653
1.63835793955663
1.61259723012711
1.87416331994645
1.62211793511528
1.70930865541644
