"death"
NA
NA
NA
0
NA
NA
NA
NA
0
NA
NA
NA
1.73116856930247
NA
NA
NA
NA
NA
0.840178400678722
NA
NA
NA
NA
NA
NA
0.533190138892266
NA
NA
NA
0
NA
NA
NA
NA
NA
NA
NA
NA
0
NA
NA
NA
NA
NA
NA
NA
0
0
NA
NA
NA
NA
0
NA
NA
NA
NA
NA
NA
NA
NA
NA
1.28755032994728
NA
NA
NA
NA
NA
NA
NA
0.184843009926011
0.510019003909641
NA
0.74990599909086
0
NA
NA
NA
NA
0
NA
NA
NA
0
NA
0.314314037293151
0
NA
NA
NA
NA
0
NA
NA
NA
NA
NA
NA
NA
NA
