"birth"
NA
1.12706858627633
NA
1.2460262652753
0.543139654094361
0.740575539923588
1.51168769978704
NA
0.759337513392492
NA
1.49471059682736
NA
1.55501247578174
0.614364026213263
1.29727343270354
0.974141766993386
NA
1.26641186013615
1.26026760101808
1.33126711485209
0.916721190946492
0.442097500470064
0.869786150110706
1.57847045577632
0.682367881160317
1.12795159137956
1.01668433334521
0.978721069137006
NA
0.959486714993982
NA
0.582933112432732
1.38140382059158
0.856380500467654
NA
0.806883628897603
0.350960597751871
NA
0.578096904324803
1.4046302531138
0.877401494379678
0.675137737360322
0.28291721655508
1.25555690133498
0.603741189636322
NA
0.283877234491724
0.625454424487478
NA
0.721210631781741
0.111553047422602
1.16007896328024
2.26804996104817
0.904929024862654
NA
0.577622650466621
0.849330826098555
1.07743085061131
0.938799793083447
NA
NA
0.547942435225253
1.9183162182387
NA
1.43694641874596
1.16348017482341
0.934209563215077
0.872002002771987
1.06021270368524
NA
0.841356281161204
1.69023238578754
NA
1.69618201350717
0.835551758283126
NA
1.25291251080259
NA
1.56595371061921
1.06638027778453
1.45925722223146
1.24265853287579
0.62077800823527
1.27832955968915
NA
1.13669540216545
0.397219014647533
1.52401620800751
0.820292521372716
0.852386335528941
0.801326220300515
0.502280565623149
NA
1.46956999412003
NA
NA
NA
0.940603753379638
1.06063917071858
0.796095861353703
