"birth"
0.547945205479452
0.781738586616635
0.497512437810945
1.37362637362637
0.641025641025641
0.903206382658437
1.01030927835052
0.402414486921529
0.739716557207052
0.670823885109599
1.3013901212659
0.554016620498615
0.952575355514731
0.683760683760684
0.666666666666667
0.56221198156682
0.412371134020619
0.564484981728512
0.606060606060606
1.83927560837578
1.04712041884817
0.402414486921529
0.472662238119571
0.893437296946069
0.61576354679803
0.742081447963801
0.972073482164923
0.725446428571429
0.357497517378352
0.436681222707424
0.410938433950986
0.980392156862745
0.713407134071341
1.53318903318903
0.598802395209581
0.921658986175115
0.506329113924051
0.509242257314237
0.693374422187981
1.05062809288161
1.17668033517561
0.796812749003984
0.408163265306122
1.12280701754386
0.481927710843373
0.687285223367698
1.00176366843034
0.68259385665529
0.626959247648903
1.19470455279303
1.20291231402343
0.810254366739722
1.23945147679325
0.505050505050505
0.447427293064877
0.833333333333333
0.664406779661017
0.518134715025907
0.451467268623025
0.615108162277974
0.527742119526458
0.395256916996047
0.789473684210526
0.549450549450549
0.560224089635854
0.649350649350649
0.62111801242236
0.661123910648102
0.570583262890955
0.423728813559322
1.57733784001288
1.18907232704403
0.389176041349954
0.672092412706747
0.626383263039212
0.343053173241852
1.03327965646806
0.682935712984884
1.22767857142857
1.4974358974359
1.05263157894737
0.831763967357188
0.621403912543153
0.971033574720211
0.676578683595055
0.738714090287278
0.573065902578797
1.21713729308666
1.1236626621242
1.0472972972973
1.11550552682284
0.72463768115942
0.755494505494505
0.706713780918728
0.43956043956044
0.655737704918033
0.379506641366224
0.751201923076923
0.808477237048666
0.714135685780298
