"death"
NA
0.563534293138167
NA
1.01933408905874
NA
NA
0
NA
NA
NA
1.88611477703386
NA
NA
0
NA
0
NA
NA
NA
0
NA
NA
NA
NA
0
NA
0
0
NA
NA
NA
0.299668825470605
0.810783976876834
0.513717986521037
NA
NA
NA
NA
0
0.749348303308049
1.15986168591665
NA
NA
NA
NA
NA
1.46697815991523
NA
NA
0
0
NA
0.877401494379678
NA
NA
NA
0
NA
NA
NA
NA
NA
NA
NA
NA
NA
NA
NA
0.410146260686358
NA
1.48648747436352
1.38190224989699
NA
NA
NA
NA
1.19414379203055
NA
NA
1.06638027778453
NA
0.58741286488131
NA
1.12103294762052
NA
0.537323395782903
NA
NA
1.9046602514013
0.749348303308049
0
NA
NA
NA
NA
NA
NA
NA
0
NA
